"id","type","text1","text2","text3","notes"
"kh_integrity","SHIP","The Integrity-class Battlecarrier is an imposing city-sized ship. Designed as the central element of a fleet, they are equipped with advanced systems for both in and out of combat: When not in an engagement, they have vast logistic facilities to support deep space expeditions or long lasting watch-keeping operations. They are also equipped with a special propulsion system supposedly developed by the mythical Original Thomas Karlsson himself for fast interplanetary travels. In combat they offer a full coverage by multiple medium weapons, several flight decks for fighter support and a fleet-wide skimmer system to maintain a strong fleet cohesion in battle.",,,

"kh_steadfast","SHIP","Aptly named, the Steadfast-class cruiser boast a fine array of weapons in a compact hull entirely optimized for the offense. Deceptively nimble for a ship lacking any mobility system, it can project an inordinate amount of firepower downrange from its ring of modules, then follow up with precision strike missile before finishing up the target with heavy weapon fire.",,,

"kh_rationale","SHIP","A carrier design that is probably as flimsly as it looks, the Rationale-class is saved by decent defenses and a reasonable top speed. This is also a design liked by fighter pilots that have to do combat landings: While a bit trickier to align with, the inside facing decks also shield from enemy fire the light crafts during the last stretch of their approach.",,,

"kh_commitment","SHIP","By most modern metrics, the Commitment-class frigate is an insane design. Decently mobile, decently armed, decently shielded and armored, it is a fine frigate... Except that the system it is equipped with discard most of its strengths for a brutal ramming assault! Combining the use of the travel drives and a Dampening field, the frigate is able to deal massive amounts of damage to larger ships through sheer mechanical force and grinding. Obviously, the survival rate of move is not great, but the potency of the attack is such that it is still a very viable tactic.",,,

"kh_perseverance","SHIP","Small and nimble, the Perseverance-class drones rely on their superior maneuverability to dodge incoming fire and fulfil their escort/interception missions. Obviously they also heavily rely on their built-in suicidal AI and the absence of crew that may take issue in flying such fragile spacecraft into a combat zone.",,,

"kh_lucidity","SHIP","Heavy interceptor and light assault craft through and through, this design has a very narrow scope of use but is very well suited for it. Between the twin Burst Lasers and a handful of Kinetic Penetrator Short Range Missiles, they can handily take care of shielded fighters and other light frigates. Against anything bigger however they will need some help.",,,

"kh_ingenuity","SHIP","A light bomber that can spray plasma charges all over a target in an instant. Potent against both shielded and non shielded enemies, their main drawback is the relatively reduced amount of raw damage they can output in a single bombing run.",,,

"kh_diligence","SHIP","Bulky, well armored, well shielded and very well armed, the Diligence-class heavy fighter would be utterly terrifying on the battlefield if it wasn't for their lackluster engines. This weakness is alleviated by their ""Zip drive"" system, that more or less consist in activating the travel engines for a very short amount of time, just enough to relocate the craft in a better position. During cool-downs however they are unable to dodge, making them very dangerous but vulnerable.",,,
,,,,,
"kh_steadfast_beam","WEAPON","Low power beam used to illuminate a target's vulnerable points. Used in conjunction with the ship's system to deliver devastating precision strikes.","Special",,
,,,,,
"kh_zip","SHIP_SYSTEM","Provides a massive, if very short lived, boost to maneuverability and top speed.",,,

"kh_fleetTel","SHIP_SYSTEM","Fleet-wide Phase Skimmer able to pull allies back to this ship while pushing away enemies. Does not affects fighters.",,,

"kh_commitment_rush","SHIP_SYSTEM","Triggers a Damper Fields shielding the ship and engage the Travel Drive engines to deal a devastating ramming assault.",,,

"kh_rationale_lock","SHIP_SYSTEM","Multi-pronged EMP and Hacking attack disabling multiple weapons on the target ship.",,,

"kh_steadfast_missile","SHIP_SYSTEM","Launches several laser guided missiles that can be precisely aimed at the weakest point of a target using the built-in Laser Pointer.",,,

"kh_drone_station","SHIP_SYSTEM","Launches several drones equipped with multiple defensive weapons.",,,
,,,,,
"OCI","FACTION","Mysterious group of suspected clones apparently wandering aimlessly the fringes of the Perseus Sector. While consistently friendly unless attacked, they also do not seem to wish to join the core worlds or even open their station to regular trading. Yet they still welcome the occasional prospector finding their hideouts as long as they aren't too nosy. 

This lead to make their existence only be known through rumors, and given the ""Flying Saucer"" design of their ships, these rumors are very much put in question by the majority of the Sector's population. ",
,,,,,
"kh_beacon","CUSTOM","A fully autonomous signalling beacon. Contains a solid-state power system which enables theoretical operation and station-keeping half-life with an upwards range in the hundreds of thousands of cycles.

Unlike more common beacons, this one on the contrary emits invites to visit the system in all kinds of languages and unusual wavebands.",,,

"kh_station_small","CUSTOM","A compact station using Coriolis modules to generates it gravity. The exterior hull is a cacophony of improvised repairs and improvements from all technological eras. Entire sections seems out of place, either from looking brand new or decrepit, as if the station had been built using salvaged parts from other stations. A lot of hull markings clearly indicates proper docking approaches and the entire spectrum of radio-waves is filled with instruction in all conceivable languages, known or unknown.",,"While not exactly dense, there is a constant traffic around the station: Small squadrons of ships seems to depart for patrol at regular intervals while other dock just long enough to refuel and resupply. The odd design makes auto-docking impossible and your navigation officer advise against mooring the ships here, while assuring that it would be possible if required.",

"kh_station_medium","CUSTOM","An imposing station using Coriolis modules to generates it gravity. The exterior hull is a cacophony of improvised repairs and improvements from all technological eras. Entire sections seems out of place, either from looking brand new or decrepit, as if the station had been built using salvaged parts from other stations. A lot of hull markings clearly indicates proper docking approaches and the entire spectrum of radio-waves is filled with instruction in all conceivable languages, known or unknown. On the underside, lines of ships move in and out of the maw of a shipyard.",,"While not exactly dense, there is a constant traffic around the station: Small squadrons of ships seems to depart for patrol at regular intervals while other dock just long enough to refuel and resupply. From time to time a larger convoy depart for some nearby station. The odd design makes auto-docking impossible and your navigation officer advise against mooring the ships here, while assuring that it would be possible if required.",

"kh_station_large","CUSTOM","An extensive station using Coriolis modules to generates it gravity. The exterior hull is a cacophony of improvised repairs and improvements from all technological eras. Entire sections seems out of place, either from looking brand new or decrepit, as if the station had been built using salvaged parts from other stations. A lot of hull markings clearly indicates proper docking approaches and the entire spectrum of radio-waves is filled with instruction in all conceivable languages, known or unknown. On the underside, lines of ships move in and out of the maw of a shipyard.

The core section of the station looks particularly old despite being obviously well maintained. Some details even indicates it might actually pre-date the entire colonization of this sector.",,"The station can only described as a lighthouse: rare are the constructions that can actually be seen from the other side of a solar system with your naked eyes. And while most of the other signals emitted are for short range instructions only, there is that one odd pulse in an unusual near-phase bandwidth. numerous construction vessels and workers in suits crawl on the surface of the station to perform some act of maintenance, illustrating how well maintained it is despite its obvious very old age.",
