{
	# The following hull style ids are reserved and can not be used:
	# "sounds", "DEFAULT", "FIGHTER", "FRIGATE", "DESTROYER", "CRUISER", "CAPITAL_SHIP"
	
	
        "KH_HULL":{
        "hyperspaceJitterColor":[100,150,75,200],
        "baseCampaignExplosionColor":[100,150,75,255],
        "baseCombatExplosionColor":[100,150,75,255],
        "fighterRepairFlickerColor":[75,150,75,250],
        "weaponDisabledExplosionColor":[75,150,75,205],
        "shieldRingColor":[200,250,150,255],
        "shieldInnerColor":[150,250,50,75],
        "fluxVentCoreColor":[100,250,150,150],
        "fluxVentFringeColor":[100,150,25,100],
	"engineLoopSet":"KH_engine_loop",                                 # id of entry in sounds.json
       
       "engineAccelerateSet":"KH_engine_accelerate",             # id of entry in sounds.json
#      "empLoopSet":"",                                               # id of entry in sounds.json
#      "fluxLoopSet":"",                                             # id of entry in sounds.json
#      "ventFluxSet":"",                                             # id of entry in sounds.json
#      "shieldBurnoutSet":"",                   # id of entry in sounds.json
       "shieldLowerSet":"KH_shield_lower",                               # id of entry in sounds.json
       "shieldRaiseSet":"KH_shield_raise",                               # id of entry in sounds.json
#      "explosionShipSet":"",                   # id of entry in sounds.json
#      "damageDecalSheet":"",
#      "damageDecalGlowSheet":"",

        #"slotCoverSmallTurret":"graphics/SCY/weapons/covers/SCY_coverTS.png",
        #"slotCoverSmallHardpoint":"graphics/SCY/weapons/covers/SCY_coverHS.png",
        #"slotCoverMediumTurret":"graphics/SCY/weapons/covers/SCY_coverTM.png",
        #"slotCoverMediumHardpoint":"graphics/SCY/weapons/covers/SCY_coverHM.png",
        #"slotCoverLargeTurret":"graphics/SCY/weapons/covers/SCY_coverTL.png",
        #"slotCoverLargeHardpoint":"graphics/SCY/weapons/covers/SCY_coverHL.png",
        
		#"dHullOverlaySmall":"graphics/damage/ship_damage_over3.png",
		#"dHullOverlayLarge":"graphics/damage/ship_damage_over3.png",
	},
	
}
