id,name,cost mult,build time,income,upkeep,downgrade,upgrade,tags,data,image,plugin,desc,order
kh_recycling,Recycling Industry,500,180,,10,,,,,graphics/KH/icons/industry/KH_recycling.png,data.campaign.industry.KH_Recycling,"Extreme recycling protocols and industries allows a station to run in near closed circle for centuries, only requiring energy and a trickle of materials to maintain itself.",3000
kh_orbitalstation,Lighthouse,50,60,,3,,kh_battlestation,"station, sub_item, unraidable","{
radius:55,
variant:kh_station_small_variant,
fleetName:Orbital Station,
}",graphics/icons/industry/orbital_station.png,data.campaign.industry.KH_OrbitalStation,"A coriolis space station, featuring moderate firepower and heavy fighter defenses.

Must be reduced before invasions or bombardment can be attempted.",2010
kh_battlestation,Gateway,100,120,,4,kh_orbitalstation,kh_starfortress,"station, battlestation, unraidable","{
radius:65,
variant:kh_station_medium_variant,
fleetName:Battlestation,
}",graphics/icons/industry/battlestation.png,data.campaign.industry.KH_OrbitalStation,"A coriolis space station, augmented with a pair of support batteries featuring moderate armaments and a fighter squadron.

Must be reduced before invasions or bombardment can be attempted.",2020
kh_starfortress,Central,200,180,,5,kh_battlestation,,"station, starfortress, unraidable","{
radius:70,
variant:kh_station_large_variant,
fleetName:Star Fortress
}",graphics/icons/industry/battlestation.png,data.campaign.industry.KH_OrbitalStation,"A coriolis battlestation that has been enhanced with heavy weapon modules, Buckler-class defense drones and an extensive minefield.

Must be reduced before invasions or bombardment can be attempted.",2030
